{
  "products": [
    {
      "id": 1234,
      "name": "AIR OPTIX® AQUA Contact Lenses"
    },
    {
      "id": 12345,
      "name": "AIR OPTIX® AQUA Multifocal Contact Lenses"
    },
    {
      "id": 123456,
      "name": "AIR OPTIX® for Astigmatism Contact Lenses"
    },
    {
      "place": 1234567,
      "name": "AIR OPTIX® COLORS Contact Lenses"
    }
  ]
}