{
  "WTSensor001": [
    {
      "SensorName": "WTSensor001",
      "Height": 10,
      "TraySensorId": "91C1808D-5C9D-465D-82B8-3F1B45F0FB4F",
      "Weight": 200,
      "ItemBarcode": "00000000G567",
      "ItemId": "G567",
      "ProductName": "Premium Beard Grooming Kit",
      "SensorDeviceType": "WeightSensor"
    },
    {
      "SensorName": "WTSensor001",
      "Height": 5,
      "TraySensorId": "91C1808D-5C9D-465D-82B8-3F1B45F0FB4F",
      "Weight": 200,
      "ItemBarcode": "00000000L246",
      "ItemId": "L246",
      "ProductName": "Mon Paris EDP 90ml",
      "SensorDeviceType": "WeightSensor"
    },
    {
      "SensorName": "WTSensor001",
      "Height": 5,
      "TraySensorId": "91C1808D-5C9D-465D-82B8-3F1B45F0FB4F",
      "Weight": 200,
      "ItemBarcode": "00000000L249",
      "ItemId": "L249",
      "ProductName": "Lady Emblem EDP 75ml",
      "SensorDeviceType": "WeightSensor"
    }
  ],
  "IRSensor001": [
    {
      "SensorName": "IRSensor001",
      "Height": 5,
      "TraySensorId": "5B3894F1-26AA-41E6-B2F2-590AEDF16851",
      "Weight": 1,
      "ItemBarcode": "00000000A171",
      "ItemId": "A171",
      "ProductName": "Ultra Power Pro 4 USB Travel Adaptor",
      "SensorDeviceType": "IRSensor"
    },
    {
      "SensorName": "IRSensor001",
      "Height": 4,
      "TraySensorId": "5B3894F1-26AA-41E6-B2F2-590AEDF16851",
      "Weight": 1,
      "ItemBarcode": "00000000A175",
      "ItemId": "A175",
      "ProductName": "Dual USB Digital Charger - Deluxe Edition",
      "SensorDeviceType": "IRSensor"
    },
    {
      "SensorName": "IRSensor001",
      "Height": 1,
      "TraySensorId": "5B3894F1-26AA-41E6-B2F2-590AEDF16851",
      "Weight": 1,
      "ItemBarcode": "00000000G561",
      "ItemId": "G561",
      "ProductName": "Twinlane Bracelet",
      "SensorDeviceType": "IRSensor"
    },
    {
      "SensorName": "IRSensor001",
      "Height": 2,
      "TraySensorId": "5B3894F1-26AA-41E6-B2F2-590AEDF16851",
      "Weight": 1,
      "ItemBarcode": "00000000L217",
      "ItemId": "L217",
      "ProductName": "Classy Necklace Set",
      "SensorDeviceType": "IRSensor"
    },
    {
      "SensorName": "IRSensor001",
      "Height": 8,
      "TraySensorId": "5B3894F1-26AA-41E6-B2F2-590AEDF16851",
      "Weight": 1,
      "ItemBarcode": "00000000L227",
      "ItemId": "L227",
      "ProductName": "Ingenious Color Palette",
      "SensorDeviceType": "IRSensor"
    },
    {
      "SensorName": "IRSensor001",
      "Height": 3,
      "TraySensorId": "5B3894F1-26AA-41E6-B2F2-590AEDF16851",
      "Weight": 0,
      "ItemBarcode": "00000000L237",
      "ItemId": "L237",
      "ProductName": "Dahlia Divin Le Nectar De Parfum EDP 75ml",
      "SensorDeviceType": "IRSensor"
    },
    {
      "SensorName": "IRSensor001",
      "Height": 5,
      "TraySensorId": "5B3894F1-26AA-41E6-B2F2-590AEDF16851",
      "Weight": 0,
      "ItemBarcode": "00000000L241",
      "ItemId": "L241",
      "ProductName": "La Panthere EDP 75ml",
      "SensorDeviceType": "IRSensor"
    }
  ],
  "IRSensor002": [
    {
      "SensorName": "IRSensor002",
      "Height": 5,
      "TraySensorId": "D61624E1-78BD-4042-95B9-8D48334C5B50",
      "Weight": 0,
      "ItemBarcode": "00000000A171",
      "ItemId": "A171",
      "ProductName": "Ultra Power Pro 4 USB Travel Adaptor",
      "SensorDeviceType": "IRSensor"
    },
    {
      "SensorName": "IRSensor002",
      "Height": 4,
      "TraySensorId": "D61624E1-78BD-4042-95B9-8D48334C5B50",
      "Weight": 0,
      "ItemBarcode": "00000000A175",
      "ItemId": "A175",
      "ProductName": "Dual USB Digital Charger - Deluxe Edition",
      "SensorDeviceType": "IRSensor"
    },
    {
      "SensorName": "IRSensor002",
      "Height": 1,
      "TraySensorId": "D61624E1-78BD-4042-95B9-8D48334C5B50",
      "Weight": 0,
      "ItemBarcode": "00000000G561",
      "ItemId": "G561",
      "ProductName": "Twinlane Bracelet",
      "SensorDeviceType": "IRSensor"
    },
    {
      "SensorName": "IRSensor002",
      "Height": 2,
      "TraySensorId": "D61624E1-78BD-4042-95B9-8D48334C5B50",
      "Weight": 0,
      "ItemBarcode": "00000000L217",
      "ItemId": "L217",
      "ProductName": "Classy Necklace Set",
      "SensorDeviceType": "IRSensor"
    },
    {
      "SensorName": "IRSensor002",
      "Height": 8,
      "TraySensorId": "D61624E1-78BD-4042-95B9-8D48334C5B50",
      "Weight": 0,
      "ItemBarcode": "00000000L227",
      "ItemId": "L227",
      "ProductName": "Ingenious Color Palette",
      "SensorDeviceType": "IRSensor"
    },
    {
      "SensorName": "IRSensor002",
      "Height": 3,
      "TraySensorId": "D61624E1-78BD-4042-95B9-8D48334C5B50",
      "Weight": 0,
      "ItemBarcode": "00000000L237",
      "ItemId": "L237",
      "ProductName": "Dahlia Divin Le Nectar De Parfum EDP 75ml",
      "SensorDeviceType": "IRSensor"
    },
    {
      "SensorName": "IRSensor002",
      "Height": 5,
      "TraySensorId": "D61624E1-78BD-4042-95B9-8D48334C5B50",
      "Weight": 0,
      "ItemBarcode": "00000000L241",
      "ItemId": "L241",
      "ProductName": "La Panthere EDP 75ml",
      "SensorDeviceType": "IRSensor"
    }
  ],
  "IRSensor003": [
    {
      "SensorName": "IRSensor003",
      "Height": 5,
      "TraySensorId": "C1E8040B-0549-4CC5-B847-9C2BF38E28D7",
      "Weight": 0,
      "ItemBarcode": "00000000A171",
      "ItemId": "A171",
      "ProductName": "Ultra Power Pro 4 USB Travel Adaptor",
      "SensorDeviceType": "IRSensor"
    },
    {
      "SensorName": "IRSensor003",
      "Height": 4,
      "TraySensorId": "C1E8040B-0549-4CC5-B847-9C2BF38E28D7",
      "Weight": 0,
      "ItemBarcode": "00000000A175",
      "ItemId": "A175",
      "ProductName": "Dual USB Digital Charger - Deluxe Edition",
      "SensorDeviceType": "IRSensor"
    },
    {
      "SensorName": "IRSensor003",
      "Height": 1,
      "TraySensorId": "C1E8040B-0549-4CC5-B847-9C2BF38E28D7",
      "Weight": 0,
      "ItemBarcode": "00000000G561",
      "ItemId": "G561",
      "ProductName": "Twinlane Bracelet",
      "SensorDeviceType": "IRSensor"
    },
    {
      "SensorName": "IRSensor003",
      "Height": 2,
      "TraySensorId": "C1E8040B-0549-4CC5-B847-9C2BF38E28D7",
      "Weight": 0,
      "ItemBarcode": "00000000L217",
      "ItemId": "L217",
      "ProductName": "Classy Necklace Set",
      "SensorDeviceType": "IRSensor"
    },
    {
      "SensorName": "IRSensor003",
      "Height": 8,
      "TraySensorId": "C1E8040B-0549-4CC5-B847-9C2BF38E28D7",
      "Weight": 0,
      "ItemBarcode": "00000000L227",
      "ItemId": "L227",
      "ProductName": "Ingenious Color Palette",
      "SensorDeviceType": "IRSensor"
    },
    {
      "SensorName": "IRSensor003",
      "Height": 3,
      "TraySensorId": "C1E8040B-0549-4CC5-B847-9C2BF38E28D7",
      "Weight": 0,
      "ItemBarcode": "00000000L237",
      "ItemId": "L237",
      "ProductName": "Dahlia Divin Le Nectar De Parfum EDP 75ml",
      "SensorDeviceType": "IRSensor"
    },
    {
      "SensorName": "IRSensor003",
      "Height": 5,
      "TraySensorId": "C1E8040B-0549-4CC5-B847-9C2BF38E28D7",
      "Weight": 0,
      "ItemBarcode": "00000000L241",
      "ItemId": "L241",
      "ProductName": "La Panthere EDP 75ml",
      "SensorDeviceType": "IRSensor"
    }
  ],
  "IRSensor004": [
    {
      "SensorName": "IRSensor004",
      "Height": 5,
      "TraySensorId": "3FEC45B1-261C-4E5F-B296-EFE4EA7FC804",
      "Weight": 0,
      "ItemBarcode": "00000000A171",
      "ItemId": "A171",
      "ProductName": "Ultra Power Pro 4 USB Travel Adaptor",
      "SensorDeviceType": "IRSensor"
    },
    {
      "SensorName": "IRSensor004",
      "Height": 4,
      "TraySensorId": "3FEC45B1-261C-4E5F-B296-EFE4EA7FC804",
      "Weight": 0,
      "ItemBarcode": "00000000A175",
      "ItemId": "A175",
      "ProductName": "Dual USB Digital Charger - Deluxe Edition",
      "SensorDeviceType": "IRSensor"
    },
    {
      "SensorName": "IRSensor004",
      "Height": 1,
      "TraySensorId": "3FEC45B1-261C-4E5F-B296-EFE4EA7FC804",
      "Weight": 0,
      "ItemBarcode": "00000000G561",
      "ItemId": "G561",
      "ProductName": "Twinlane Bracelet",
      "SensorDeviceType": "IRSensor"
    },
    {
      "SensorName": "IRSensor004",
      "Height": 2,
      "TraySensorId": "3FEC45B1-261C-4E5F-B296-EFE4EA7FC804",
      "Weight": 0,
      "ItemBarcode": "00000000L217",
      "ItemId": "L217",
      "ProductName": "Classy Necklace Set",
      "SensorDeviceType": "IRSensor"
    },
    {
      "SensorName": "IRSensor004",
      "Height": 8,
      "TraySensorId": "3FEC45B1-261C-4E5F-B296-EFE4EA7FC804",
      "Weight": 0,
      "ItemBarcode": "00000000L227",
      "ItemId": "L227",
      "ProductName": "Ingenious Color Palette",
      "SensorDeviceType": "IRSensor"
    },
    {
      "SensorName": "IRSensor004",
      "Height": 3,
      "TraySensorId": "3FEC45B1-261C-4E5F-B296-EFE4EA7FC804",
      "Weight": 0,
      "ItemBarcode": "00000000L237",
      "ItemId": "L237",
      "ProductName": "Dahlia Divin Le Nectar De Parfum EDP 75ml",
      "SensorDeviceType": "IRSensor"
    },
    {
      "SensorName": "IRSensor004",
      "Height": 5,
      "TraySensorId": "3FEC45B1-261C-4E5F-B296-EFE4EA7FC804",
      "Weight": 0,
      "ItemBarcode": "00000000L241",
      "ItemId": "L241",
      "ProductName": "La Panthere EDP 75ml",
      "SensorDeviceType": "IRSensor"
    }
  ],
  "IRSensor005": [
    {
      "SensorName": "IRSensor005",
      "Height": 5,
      "TraySensorId": "6945DF58-55D4-48C2-A2F5-70DA77D1F4E4",
      "Weight": 0,
      "ItemBarcode": "00000000A171",
      "ItemId": "A171",
      "ProductName": "Ultra Power Pro 4 USB Travel Adaptor",
      "SensorDeviceType": "IRSensor"
    },
    {
      "SensorName": "IRSensor005",
      "Height": 4,
      "TraySensorId": "6945DF58-55D4-48C2-A2F5-70DA77D1F4E4",
      "Weight": 0,
      "ItemBarcode": "00000000A175",
      "ItemId": "A175",
      "ProductName": "Dual USB Digital Charger - Deluxe Edition",
      "SensorDeviceType": "IRSensor"
    },
    {
      "SensorName": "IRSensor005",
      "Height": 1,
      "TraySensorId": "6945DF58-55D4-48C2-A2F5-70DA77D1F4E4",
      "Weight": 0,
      "ItemBarcode": "00000000G561",
      "ItemId": "G561",
      "ProductName": "Twinlane Bracelet",
      "SensorDeviceType": "IRSensor"
    },
    {
      "SensorName": "IRSensor005",
      "Height": 2,
      "TraySensorId": "6945DF58-55D4-48C2-A2F5-70DA77D1F4E4",
      "Weight": 0,
      "ItemBarcode": "00000000L217",
      "ItemId": "L217",
      "ProductName": "Classy Necklace Set",
      "SensorDeviceType": "IRSensor"
    },
    {
      "SensorName": "IRSensor005",
      "Height": 8,
      "TraySensorId": "6945DF58-55D4-48C2-A2F5-70DA77D1F4E4",
      "Weight": 0,
      "ItemBarcode": "00000000L227",
      "ItemId": "L227",
      "ProductName": "Ingenious Color Palette",
      "SensorDeviceType": "IRSensor"
    },
    {
      "SensorName": "IRSensor005",
      "Height": 3,
      "TraySensorId": "6945DF58-55D4-48C2-A2F5-70DA77D1F4E4",
      "Weight": 0,
      "ItemBarcode": "00000000L237",
      "ItemId": "L237",
      "ProductName": "Dahlia Divin Le Nectar De Parfum EDP 75ml",
      "SensorDeviceType": "IRSensor"
    },
    {
      "SensorName": "IRSensor005",
      "Height": 5,
      "TraySensorId": "6945DF58-55D4-48C2-A2F5-70DA77D1F4E4",
      "Weight": 0,
      "ItemBarcode": "00000000L241",
      "ItemId": "L241",
      "ProductName": "La Panthere EDP 75ml",
      "SensorDeviceType": "IRSensor"
    }
  ],
  "IRSensor006": [
    {
      "SensorName": "IRSensor006",
      "Height": 5,
      "TraySensorId": "4550a227-0f1a-44d2-b0f7-c37832853412",
      "Weight": 0,
      "ItemBarcode": "00000000A171",
      "ItemId": "A171",
      "ProductName": "Ultra Power Pro 4 USB Travel Adaptor",
      "SensorDeviceType": "IRSensor"
    },
    {
      "SensorName": "IRSensor006",
      "Height": 4,
      "TraySensorId": "4550a227-0f1a-44d2-b0f7-c37832853412",
      "Weight": 0,
      "ItemBarcode": "00000000A175",
      "ItemId": "A175",
      "ProductName": "Dual USB Digital Charger - Deluxe Edition",
      "SensorDeviceType": "IRSensor"
    },
    {
      "SensorName": "IRSensor006",
      "Height": 1,
      "TraySensorId": "4550a227-0f1a-44d2-b0f7-c37832853412",
      "Weight": 0,
      "ItemBarcode": "00000000G561",
      "ItemId": "G561",
      "ProductName": "Twinlane Bracelet",
      "SensorDeviceType": "IRSensor"
    },
    {
      "SensorName": "IRSensor006",
      "Height": 2,
      "TraySensorId": "4550a227-0f1a-44d2-b0f7-c37832853412",
      "Weight": 0,
      "ItemBarcode": "00000000L217",
      "ItemId": "L217",
      "ProductName": "Classy Necklace Set",
      "SensorDeviceType": "IRSensor"
    },
    {
      "SensorName": "IRSensor006",
      "Height": 8,
      "TraySensorId": "4550a227-0f1a-44d2-b0f7-c37832853412",
      "Weight": 0,
      "ItemBarcode": "00000000L227",
      "ItemId": "L227",
      "ProductName": "Ingenious Color Palette",
      "SensorDeviceType": "IRSensor"
    },
    {
      "SensorName": "IRSensor006",
      "Height": 3,
      "TraySensorId": "4550a227-0f1a-44d2-b0f7-c37832853412",
      "Weight": 0,
      "ItemBarcode": "00000000L237",
      "ItemId": "L237",
      "ProductName": "Dahlia Divin Le Nectar De Parfum EDP 75ml",
      "SensorDeviceType": "IRSensor"
    },
    {
      "SensorName": "IRSensor006",
      "Height": 5,
      "TraySensorId": "4550a227-0f1a-44d2-b0f7-c37832853412",
      "Weight": 0,
      "ItemBarcode": "00000000L241",
      "ItemId": "L241",
      "ProductName": "La Panthere EDP 75ml",
      "SensorDeviceType": "IRSensor"
    }
  ],
  "IRSensor007": [
    {
      "SensorName": "IRSensor007",
      "Height": 5,
      "TraySensorId": "b9ade22f-fd9c-44e3-b017-7c2183e68906",
      "Weight": 1,
      "ItemBarcode": "00000000A171",
      "ItemId": "A171",
      "ProductName": "Ultra Power Pro 4 USB Travel Adaptor",
      "SensorDeviceType": "IRSensor"
    },
    {
      "SensorName": "IRSensor007",
      "Height": 4,
      "TraySensorId": "b9ade22f-fd9c-44e3-b017-7c2183e68906",
      "Weight": 1,
      "ItemBarcode": "00000000A175",
      "ItemId": "A175",
      "ProductName": "Dual USB Digital Charger - Deluxe Edition",
      "SensorDeviceType": "IRSensor"
    },
    {
      "SensorName": "IRSensor007",
      "Height": 1,
      "TraySensorId": "b9ade22f-fd9c-44e3-b017-7c2183e68906",
      "Weight": 1,
      "ItemBarcode": "00000000G561",
      "ItemId": "G561",
      "ProductName": "Twinlane Bracelet",
      "SensorDeviceType": "IRSensor"
    },
    {
      "SensorName": "IRSensor007",
      "Height": 2,
      "TraySensorId": "b9ade22f-fd9c-44e3-b017-7c2183e68906",
      "Weight": 1,
      "ItemBarcode": "00000000L217",
      "ItemId": "L217",
      "ProductName": "Classy Necklace Set",
      "SensorDeviceType": "IRSensor"
    },
    {
      "SensorName": "IRSensor007",
      "Height": 8,
      "TraySensorId": "b9ade22f-fd9c-44e3-b017-7c2183e68906",
      "Weight": 1,
      "ItemBarcode": "00000000L227",
      "ItemId": "L227",
      "ProductName": "Ingenious Color Palette",
      "SensorDeviceType": "IRSensor"
    },
    {
      "SensorName": "IRSensor007",
      "Height": 3,
      "TraySensorId": "b9ade22f-fd9c-44e3-b017-7c2183e68906",
      "Weight": 0,
      "ItemBarcode": "00000000L237",
      "ItemId": "L237",
      "ProductName": "Dahlia Divin Le Nectar De Parfum EDP 75ml",
      "SensorDeviceType": "IRSensor"
    },
    {
      "SensorName": "IRSensor007",
      "Height": 5,
      "TraySensorId": "b9ade22f-fd9c-44e3-b017-7c2183e68906",
      "Weight": 0,
      "ItemBarcode": "00000000L241",
      "ItemId": "L241",
      "ProductName": "La Panthere EDP 75ml",
      "SensorDeviceType": "IRSensor"
    }
  ],
  "IRSensor008": [
    {
      "SensorName": "IRSensor008",
      "Height": 5,
      "TraySensorId": "d1e69ec9-6f67-4b73-a30a-47fc1d85c441",
      "Weight": 0,
      "ItemBarcode": "00000000A171",
      "ItemId": "A171",
      "ProductName": "Ultra Power Pro 4 USB Travel Adaptor",
      "SensorDeviceType": "IRSensor"
    },
    {
      "SensorName": "IRSensor008",
      "Height": 4,
      "TraySensorId": "d1e69ec9-6f67-4b73-a30a-47fc1d85c441",
      "Weight": 0,
      "ItemBarcode": "00000000A175",
      "ItemId": "A175",
      "ProductName": "Dual USB Digital Charger - Deluxe Edition",
      "SensorDeviceType": "IRSensor"
    },
    {
      "SensorName": "IRSensor008",
      "Height": 1,
      "TraySensorId": "d1e69ec9-6f67-4b73-a30a-47fc1d85c441",
      "Weight": 0,
      "ItemBarcode": "00000000G561",
      "ItemId": "G561",
      "ProductName": "Twinlane Bracelet",
      "SensorDeviceType": "IRSensor"
    },
    {
      "SensorName": "IRSensor008",
      "Height": 2,
      "TraySensorId": "d1e69ec9-6f67-4b73-a30a-47fc1d85c441",
      "Weight": 0,
      "ItemBarcode": "00000000L217",
      "ItemId": "L217",
      "ProductName": "Classy Necklace Set",
      "SensorDeviceType": "IRSensor"
    },
    {
      "SensorName": "IRSensor008",
      "Height": 8,
      "TraySensorId": "d1e69ec9-6f67-4b73-a30a-47fc1d85c441",
      "Weight": 0,
      "ItemBarcode": "00000000L227",
      "ItemId": "L227",
      "ProductName": "Ingenious Color Palette",
      "SensorDeviceType": "IRSensor"
    },
    {
      "SensorName": "IRSensor008",
      "Height": 3,
      "TraySensorId": "d1e69ec9-6f67-4b73-a30a-47fc1d85c441",
      "Weight": 0,
      "ItemBarcode": "00000000L237",
      "ItemId": "L237",
      "ProductName": "Dahlia Divin Le Nectar De Parfum EDP 75ml",
      "SensorDeviceType": "IRSensor"
    },
    {
      "SensorName": "IRSensor008",
      "Height": 5,
      "TraySensorId": "d1e69ec9-6f67-4b73-a30a-47fc1d85c441",
      "Weight": 0,
      "ItemBarcode": "00000000L241",
      "ItemId": "L241",
      "ProductName": "La Panthere EDP 75ml",
      "SensorDeviceType": "IRSensor"
    }
  ],
  "IRSensor009": [
    {
      "SensorName": "IRSensor009",
      "Height": 5,
      "TraySensorId": "4a8c830f-e67b-4b4c-91f4-03f70efe050b",
      "Weight": 0,
      "ItemBarcode": "00000000A171",
      "ItemId": "A171",
      "ProductName": "Ultra Power Pro 4 USB Travel Adaptor",
      "SensorDeviceType": "IRSensor"
    },
    {
      "SensorName": "IRSensor009",
      "Height": 4,
      "TraySensorId": "4a8c830f-e67b-4b4c-91f4-03f70efe050b",
      "Weight": 0,
      "ItemBarcode": "00000000A175",
      "ItemId": "A175",
      "ProductName": "Dual USB Digital Charger - Deluxe Edition",
      "SensorDeviceType": "IRSensor"
    },
    {
      "SensorName": "IRSensor009",
      "Height": 1,
      "TraySensorId": "4a8c830f-e67b-4b4c-91f4-03f70efe050b",
      "Weight": 0,
      "ItemBarcode": "00000000G561",
      "ItemId": "G561",
      "ProductName": "Twinlane Bracelet",
      "SensorDeviceType": "IRSensor"
    },
    {
      "SensorName": "IRSensor009",
      "Height": 2,
      "TraySensorId": "4a8c830f-e67b-4b4c-91f4-03f70efe050b",
      "Weight": 0,
      "ItemBarcode": "00000000L217",
      "ItemId": "L217",
      "ProductName": "Classy Necklace Set",
      "SensorDeviceType": "IRSensor"
    },
    {
      "SensorName": "IRSensor009",
      "Height": 8,
      "TraySensorId": "4a8c830f-e67b-4b4c-91f4-03f70efe050b",
      "Weight": 0,
      "ItemBarcode": "00000000L227",
      "ItemId": "L227",
      "ProductName": "Ingenious Color Palette",
      "SensorDeviceType": "IRSensor"
    },
    {
      "SensorName": "IRSensor009",
      "Height": 0,
      "TraySensorId": "4a8c830f-e67b-4b4c-91f4-03f70efe050b",
      "Weight": 0,
      "ItemBarcode": "00000000L241",
      "ItemId": "L241",
      "ProductName": "La Panthere EDP 75ml",
      "SensorDeviceType": "IRSensor"
    },
    {
      "SensorName": "IRSensor009",
      "Height": 3,
      "TraySensorId": "4a8c830f-e67b-4b4c-91f4-03f70efe050b",
      "Weight": 0,
      "ItemBarcode": "00000000L237",
      "ItemId": "L237",
      "ProductName": "Dahlia Divin Le Nectar De Parfum EDP 75ml",
      "SensorDeviceType": "IRSensor"
    }
  ],
  "IRSensor010": [
    {
      "SensorName": "IRSensor010",
      "Height": 5,
      "TraySensorId": "ff6acabb-dc31-4c2d-a868-a075ed0e938e",
      "Weight": 0,
      "ItemBarcode": "00000000A171",
      "ItemId": "A171",
      "ProductName": "Ultra Power Pro 4 USB Travel Adaptor",
      "SensorDeviceType": "IRSensor"
    },
    {
      "SensorName": "IRSensor010",
      "Height": 4,
      "TraySensorId": "ff6acabb-dc31-4c2d-a868-a075ed0e938e",
      "Weight": 0,
      "ItemBarcode": "00000000A175",
      "ItemId": "A175",
      "ProductName": "Dual USB Digital Charger - Deluxe Edition",
      "SensorDeviceType": "IRSensor"
    },
    {
      "SensorName": "IRSensor010",
      "Height": 1,
      "TraySensorId": "ff6acabb-dc31-4c2d-a868-a075ed0e938e",
      "Weight": 0,
      "ItemBarcode": "00000000G561",
      "ItemId": "G561",
      "ProductName": "Twinlane Bracelet",
      "SensorDeviceType": "IRSensor"
    },
    {
      "SensorName": "IRSensor010",
      "Height": 2,
      "TraySensorId": "ff6acabb-dc31-4c2d-a868-a075ed0e938e",
      "Weight": 0,
      "ItemBarcode": "00000000L217",
      "ItemId": "L217",
      "ProductName": "Classy Necklace Set",
      "SensorDeviceType": "IRSensor"
    },
    {
      "SensorName": "IRSensor010",
      "Height": 8,
      "TraySensorId": "ff6acabb-dc31-4c2d-a868-a075ed0e938e",
      "Weight": 0,
      "ItemBarcode": "00000000L227",
      "ItemId": "L227",
      "ProductName": "Ingenious Color Palette",
      "SensorDeviceType": "IRSensor"
    },
    {
      "SensorName": "IRSensor010",
      "Height": 3,
      "TraySensorId": "ff6acabb-dc31-4c2d-a868-a075ed0e938e",
      "Weight": 0,
      "ItemBarcode": "00000000L237",
      "ItemId": "L237",
      "ProductName": "Dahlia Divin Le Nectar De Parfum EDP 75ml",
      "SensorDeviceType": "IRSensor"
    },
    {
      "SensorName": "IRSensor010",
      "Height": 5,
      "TraySensorId": "ff6acabb-dc31-4c2d-a868-a075ed0e938e",
      "Weight": 0,
      "ItemBarcode": "00000000L241",
      "ItemId": "L241",
      "ProductName": "La Panthere EDP 75ml",
      "SensorDeviceType": "IRSensor"
    }
  ]
}